// Jest Snapshot v1, https://goo.gl/fbAQLP

exports[`ExampleStyledComponent Snapshots should renders default correctly 1`] = `
<div
  className="example-styled-component"
>
  I have no props, but I'm a different
  <span
    className="example-styled-component--highlight"
  >
    colour
  </span>
  !
</div>
`;
